{"count":13,"page":1,"page_size":10,"total_pages":2,"incidents":[{"id":"0d364400","title":"集群发生未知故障","date":"2021-01-06T01:45:00.000Z","modified":"2021-01-31T00:16:36.837Z","scheduled":null,"severity":"major-outage","affectedsystems":["backend","gateway","seaweedfs","judge"],"resolved":true,"content":"<p>集群发生未知故障，课程系统整体不可用，请等待我们的检修。</p>\n<div class=\"update-block\">\n          <div class=\"update-block-date\">2021-01-06T09:26:00.000Z</div>\n          <div class=\"update-block-content\">\n            <div class=\"update-block-title\">Resolved</div>\n            <div class=\"update-block-body\">\n<p>集群已恢复正常，课程系统正常运行。</p>\n</div></div></div>\n"},{"id":"3e958365","title":"Redis, RabbitMQ, 服务网关故障","date":"2020-12-03T23:46:32.722Z","modified":"2021-01-31T00:16:36.837Z","scheduled":null,"severity":"major-outage","affectedsystems":["gateway","backend","judge"],"resolved":true,"content":"<p>我们接到系统报警，一台承载 Redis 与 RabbitMQ 的服务器宕机，服务网关受到部分影响。</p>\n<div class=\"update-block\">\n          <div class=\"update-block-date\">2020-12-04T01:45:00.000Z</div>\n          <div class=\"update-block-content\">\n            <div class=\"update-block-title\">Investigating</div>\n            <div class=\"update-block-body\">\n<p>我们收到用户关于此次故障的反馈，并正在调查该问题。</p>\n</div></div></div>\n<div class=\"update-block\">\n          <div class=\"update-block-date\">2020-12-04T02:02:00.000Z</div>\n          <div class=\"update-block-content\">\n            <div class=\"update-block-title\">Monitoring</div>\n            <div class=\"update-block-body\">\n<p>我们重新启动了宕机的服务器，用户应已可以正常登录。我们仍在观察评测队列与服务网关的恢复情况。</p>\n</div></div></div>\n<div class=\"update-block\">\n          <div class=\"update-block-date\">2020-12-04T02:46:00.000Z</div>\n          <div class=\"update-block-content\">\n            <div class=\"update-block-title\">Resolved</div>\n            <div class=\"update-block-body\">\n<p>故障已解决。</p>\n</div></div></div>\n"},{"id":"3580fc23","title":"集群内部 DNS 故障","date":"2020-11-19T05:14:47.167Z","modified":"2021-01-31T00:16:36.836Z","scheduled":null,"severity":"partial-outage","affectedsystems":["backend","judge","seaweedfs"],"resolved":true,"content":"<p>我们接到系统有关 DNS 不可用的告警，并正在调查此问题。</p>\n<div class=\"update-block\">\n          <div class=\"update-block-date\">2020-11-19T07:30:33.996Z</div>\n          <div class=\"update-block-content\">\n            <div class=\"update-block-title\">Resolved</div>\n            <div class=\"update-block-body\">\n<p>相关服务已恢复。</p>\n</div></div></div>\n<div class=\"update-block\">\n          <div class=\"update-block-date\">2020-11-19T07:05:01.629Z</div>\n          <div class=\"update-block-content\">\n            <div class=\"update-block-title\">Monitoring</div>\n            <div class=\"update-block-body\">\n<p>核心服务器重启并配置完成，正在观察恢复状况。</p>\n</div></div></div>\n<div class=\"update-block\">\n          <div class=\"update-block-date\">2020-11-19T06:14:10.528Z</div>\n          <div class=\"update-block-content\">\n            <div class=\"update-block-title\">Investigating</div>\n            <div class=\"update-block-body\">\n<p>我们正在对一台资源耗尽的核心服务器进行重启操作，将会影响到大部分业务。</p>\n</div></div></div>\n"},{"id":"0011059a","title":"集群网络故障","date":"2020-11-13T13:33:00.000Z","modified":"2021-01-31T00:16:36.835Z","scheduled":null,"severity":"major-outage","affectedsystems":["gateway","backend"],"resolved":true,"content":"<p>我们注意到课程系统主站 5xx 报错上升，并收到无法打开课程系统的反馈。我们正在调查该问题。</p>\n<div class=\"update-block\">\n          <div class=\"update-block-date\">2020-11-13T15:49:09.673Z</div>\n          <div class=\"update-block-content\">\n            <div class=\"update-block-title\">Resolved</div>\n            <div class=\"update-block-body\">\n<p>该问题已解决。</p>\n</div></div></div>\n<div class=\"update-block\">\n          <div class=\"update-block-date\">2020-11-13T15:03:00.000Z</div>\n          <div class=\"update-block-content\">\n            <div class=\"update-block-title\">Monitoring</div>\n            <div class=\"update-block-body\">\n<p>我们已经应用了一个临时解决方案，并正在观察服务恢复的状况。</p>\n</div></div></div>\n<div class=\"update-block\">\n          <div class=\"update-block-date\">2020-11-13T13:54:00.000Z</div>\n          <div class=\"update-block-content\">\n            <div class=\"update-block-title\">Investigating</div>\n            <div class=\"update-block-body\">\n<p>我们已经定位到问题发生的原因，并正在解决该问题。</p>\n</div></div></div>\n"},{"id":"5259e2d0","title":"服务器负载过高","date":"2020-10-31T11:16:00.000Z","modified":"2021-01-31T00:16:36.834Z","scheduled":null,"severity":"partial-outage","affectedsystems":["seaweedfs","gateway"],"resolved":true,"content":"<p>我们注意到部分服务的错误率有所上升，并且正在调查。</p>\n<div class=\"update-block\">\n          <div class=\"update-block-date\">2020-10-31T13:15:00.000Z</div>\n          <div class=\"update-block-content\">\n            <div class=\"update-block-title\">Resolved</div>\n            <div class=\"update-block-body\">\n<p>相关服务已经恢复。</p>\n</div></div></div>\n"},{"id":"bef1a212","title":"数据中心间通信故障","date":"2020-09-17T17:20:00.000Z","modified":"2021-01-31T00:16:36.832Z","scheduled":null,"severity":"major-outage","affectedsystems":["gateway","seaweedfs"],"resolved":true,"content":"<p>我们注意到主站服务完全无法打开，并正在调查该问题。</p>\n<div class=\"update-block\">\n          <div class=\"update-block-date\">2020-09-17T18:00:00.000Z</div>\n          <div class=\"update-block-content\">\n            <div class=\"update-block-title\">Resolved</div>\n            <div class=\"update-block-body\">\n<p>服务已完全恢复。</p>\n</div></div></div>\n<div class=\"update-block\">\n          <div class=\"update-block-date\">2020-09-17T17:36:30.211Z</div>\n          <div class=\"update-block-content\">\n            <div class=\"update-block-title\">Monitoring</div>\n            <div class=\"update-block-body\">\n<p>我们观察到服务开始恢复，并将持续关注恢复进展。</p>\n</div></div></div>\n<div class=\"update-block\">\n          <div class=\"update-block-date\">2020-09-17T17:27:00.000Z</div>\n          <div class=\"update-block-content\">\n            <div class=\"update-block-title\">Investigating</div>\n            <div class=\"update-block-body\">\n<p>我们正在应用一些网络设备操作，以验证我们对于问题的判断。期间您可能无法连接 Matrix 服务器。</p>\n</div></div></div>\n"},{"id":"b74d3e06","title":"集群调度故障","date":"2020-09-17T02:40:00.000Z","modified":"2021-01-31T00:16:36.833Z","scheduled":null,"severity":"major-outage","affectedsystems":["gateway","seaweedfs"],"resolved":true,"content":"<p>我们注意到主站服务完全不可用，并正在调查该问题。</p>\n<div class=\"update-block\">\n          <div class=\"update-block-date\">2020-09-17T03:33:03.894Z</div>\n          <div class=\"update-block-content\">\n            <div class=\"update-block-title\">Resolved</div>\n            <div class=\"update-block-body\">\n<p>相关服务已经完全恢复。</p>\n</div></div></div>\n<div class=\"update-block\">\n          <div class=\"update-block-date\">2020-09-17T03:22:00.000Z</div>\n          <div class=\"update-block-content\">\n            <div class=\"update-block-title\">Monitoring</div>\n            <div class=\"update-block-body\">\n<p>我们注意到文件系统仍然存在问题，已尝试对文件系统进行修复，正在观察恢复状况。</p>\n</div></div></div>\n<div class=\"update-block\">\n          <div class=\"update-block-date\">2020-09-17T03:03:00.000Z</div>\n          <div class=\"update-block-content\">\n            <div class=\"update-block-title\">Monitoring</div>\n            <div class=\"update-block-body\">\n<p>我们已经调整了相关配置，正在观察恢复状况。</p>\n</div></div></div>\n"},{"id":"7d954eca","title":"文件系统故障","date":"2020-09-16T03:16:00.000Z","modified":"2021-01-31T00:16:36.831Z","scheduled":null,"severity":"partial-outage","affectedsystems":["seaweedfs"],"resolved":true,"content":"<p>我们观察到部分发往文件系统的上传请求失败，正在积极调查该问题。</p>\n<div class=\"update-block\">\n          <div class=\"update-block-date\">2020-09-16T03:39:00.018Z</div>\n          <div class=\"update-block-content\">\n            <div class=\"update-block-title\">Monitoring</div>\n            <div class=\"update-block-body\">\n<p>我们已应用了临时解决方案，正在观察恢复情况。</p>\n</div></div></div>\n"},{"id":"736f36a2","title":"集群路由器维护","date":"2020-09-01T02:34:09.096Z","modified":"2021-01-31T00:16:36.830Z","scheduled":"2020-09-01T02:34:09.163Z","duration":30,"severity":"under-maintenance","affectedsystems":["gateway"],"resolved":true,"content":"<p>近期发现集群路由器存在间歇性鼓掌，现对该路由器进行维护，预计为期半小时。对由此给您带来的不便，我们深表歉意。</p>\n"},{"id":"030818ce","title":"假期例行维护 II","date":"2020-08-20T00:00:00.000Z","modified":"2021-01-31T00:16:36.828Z","scheduled":"2020-08-20T00:00:00.000Z","duration":960,"severity":"under-maintenance","affectedsystems":["backend","judge","seaweedfs"],"resolved":true,"content":"<p>为了给您提供更好的服务，Matrix 将于 2020 年 8 月 20 日（星期四）上午 8:00 起进行例行维护，预计最晚 24:00 完成维护。维护期间课程系统将无法访问。对于由此给您带来的不便，我们深表歉意。</p>\n"}]}