{"count":13,"page":2,"page_size":10,"total_pages":2,"incidents":[{"id":"9cd42d26","title":"服务故障","date":"2020-08-19T13:04:00.000Z","modified":"2021-04-08T00:37:15.506Z","scheduled":null,"severity":"partial-outage","affectedsystems":["backend","seaweedfs"],"resolved":true,"content":"<p>我们正在关注部分服务不可用的问题。</p>\n<div class=\"update-block\">\n          <div class=\"update-block-date\">2020-08-19T13:58:20.549Z</div>\n          <div class=\"update-block-content\">\n            <div class=\"update-block-title\">Resolved</div>\n            <div class=\"update-block-body\">\n<p>问题已解决。</p>\n</div></div></div>\n<div class=\"update-block\">\n          <div class=\"update-block-date\">2020-08-19T13:37:21.633Z</div>\n          <div class=\"update-block-content\">\n            <div class=\"update-block-title\">Monitoring</div>\n            <div class=\"update-block-body\">\n<p>我们已经执行了恢复操作，正在观察恢复情况。</p>\n</div></div></div>\n<div class=\"update-block\">\n          <div class=\"update-block-date\">2020-08-19T13:26:19.605Z</div>\n          <div class=\"update-block-content\">\n            <div class=\"update-block-title\">Investigating</div>\n            <div class=\"update-block-body\">\n<p>我们已经定位到了故障原因，正在处理中。</p>\n</div></div></div>\n"},{"id":"86c97534","title":"假期例行维护","date":"2020-08-01T16:00:03.712Z","modified":"2021-04-08T00:37:15.503Z","scheduled":"2020-08-01T15:50:10.963Z","duration":1450,"severity":"under-maintenance","affectedsystems":["gateway","backend","seaweedfs"],"resolved":true,"content":"<p>为了给您提供更好的服务，Matrix 将于 2020 年 8 月 2 日（星期日）全天进行例行维护，届时课程系统将无法访问。对于由此给您带来的不便，我们深表歉意。</p>\n"},{"id":"76762af8","title":"集群网络故障","date":"2020-07-26T12:08:00.000Z","modified":"2021-04-08T00:37:15.502Z","scheduled":null,"severity":"partial-outage","affectedsystems":["backend"],"resolved":true,"content":"<!-- Your General content -->\n<p>我们的集群网络发生故障，您可能会遇到“数据库查询错误”、“文件系统错误”等报错。我们正在调查该问题。</p>\n<!-- Definition of the Incident Updates -->\n<div class=\"update-block\">\n          <div class=\"update-block-date\">2020-07-26T13:30:00.000Z</div>\n          <div class=\"update-block-content\">\n            <div class=\"update-block-title\">已解决</div>\n            <div class=\"update-block-body\">\n<p>集群网络已经恢复正常。</p>\n</div></div></div>\n<div class=\"update-block\">\n          <div class=\"update-block-date\">2020-07-26T13:16:06.000Z</div>\n          <div class=\"update-block-content\">\n            <div class=\"update-block-title\">恢复中</div>\n            <div class=\"update-block-body\">\n<p>我们正在密切关注集群网络的恢复情况。</p>\n</div></div></div>\n"}]}