{"count":7,"page":1,"page_size":3,"total_pages":3,"periods":[{"id":"2021-1","incidents":[{"id":"0d364400","title":"集群发生未知故障","date":"2021-01-06T01:45:00.000Z","modified":"2021-02-06T00:11:57.732Z","scheduled":null,"severity":"major-outage","affectedsystems":["backend","gateway","seaweedfs","judge"],"resolved":true,"content":"<p>集群发生未知故障，课程系统整体不可用，请等待我们的检修。</p>\n<div class=\"update-block\">\n          <div class=\"update-block-date\">2021-01-06T09:26:00.000Z</div>\n          <div class=\"update-block-content\">\n            <div class=\"update-block-title\">Resolved</div>\n            <div class=\"update-block-body\">\n<p>集群已恢复正常，课程系统正常运行。</p>\n</div></div></div>\n"}],"order":1,"count":1},{"id":"2020-12","incidents":[{"id":"3e958365","title":"Redis, RabbitMQ, 服务网关故障","date":"2020-12-03T23:46:32.722Z","modified":"2021-02-06T00:11:57.732Z","scheduled":null,"severity":"major-outage","affectedsystems":["gateway","backend","judge"],"resolved":true,"content":"<p>我们接到系统报警，一台承载 Redis 与 RabbitMQ 的服务器宕机，服务网关受到部分影响。</p>\n<div class=\"update-block\">\n          <div class=\"update-block-date\">2020-12-04T01:45:00.000Z</div>\n          <div class=\"update-block-content\">\n            <div class=\"update-block-title\">Investigating</div>\n            <div class=\"update-block-body\">\n<p>我们收到用户关于此次故障的反馈，并正在调查该问题。</p>\n</div></div></div>\n<div class=\"update-block\">\n          <div class=\"update-block-date\">2020-12-04T02:02:00.000Z</div>\n          <div class=\"update-block-content\">\n            <div class=\"update-block-title\">Monitoring</div>\n            <div class=\"update-block-body\">\n<p>我们重新启动了宕机的服务器，用户应已可以正常登录。我们仍在观察评测队列与服务网关的恢复情况。</p>\n</div></div></div>\n<div class=\"update-block\">\n          <div class=\"update-block-date\">2020-12-04T02:46:00.000Z</div>\n          <div class=\"update-block-content\">\n            <div class=\"update-block-title\">Resolved</div>\n            <div class=\"update-block-body\">\n<p>故障已解决。</p>\n</div></div></div>\n"}],"order":2,"count":1},{"id":"2020-11","incidents":[{"id":"3580fc23","title":"集群内部 DNS 故障","date":"2020-11-19T05:14:47.167Z","modified":"2021-02-06T00:11:57.731Z","scheduled":null,"severity":"partial-outage","affectedsystems":["backend","judge","seaweedfs"],"resolved":true,"content":"<p>我们接到系统有关 DNS 不可用的告警，并正在调查此问题。</p>\n<div class=\"update-block\">\n          <div class=\"update-block-date\">2020-11-19T07:30:33.996Z</div>\n          <div class=\"update-block-content\">\n            <div class=\"update-block-title\">Resolved</div>\n            <div class=\"update-block-body\">\n<p>相关服务已恢复。</p>\n</div></div></div>\n<div class=\"update-block\">\n          <div class=\"update-block-date\">2020-11-19T07:05:01.629Z</div>\n          <div class=\"update-block-content\">\n            <div class=\"update-block-title\">Monitoring</div>\n            <div class=\"update-block-body\">\n<p>核心服务器重启并配置完成，正在观察恢复状况。</p>\n</div></div></div>\n<div class=\"update-block\">\n          <div class=\"update-block-date\">2020-11-19T06:14:10.528Z</div>\n          <div class=\"update-block-content\">\n            <div class=\"update-block-title\">Investigating</div>\n            <div class=\"update-block-body\">\n<p>我们正在对一台资源耗尽的核心服务器进行重启操作，将会影响到大部分业务。</p>\n</div></div></div>\n"},{"id":"0011059a","title":"集群网络故障","date":"2020-11-13T13:33:00.000Z","modified":"2021-02-06T00:11:57.730Z","scheduled":null,"severity":"major-outage","affectedsystems":["gateway","backend"],"resolved":true,"content":"<p>我们注意到课程系统主站 5xx 报错上升，并收到无法打开课程系统的反馈。我们正在调查该问题。</p>\n<div class=\"update-block\">\n          <div class=\"update-block-date\">2020-11-13T15:49:09.673Z</div>\n          <div class=\"update-block-content\">\n            <div class=\"update-block-title\">Resolved</div>\n            <div class=\"update-block-body\">\n<p>该问题已解决。</p>\n</div></div></div>\n<div class=\"update-block\">\n          <div class=\"update-block-date\">2020-11-13T15:03:00.000Z</div>\n          <div class=\"update-block-content\">\n            <div class=\"update-block-title\">Monitoring</div>\n            <div class=\"update-block-body\">\n<p>我们已经应用了一个临时解决方案，并正在观察服务恢复的状况。</p>\n</div></div></div>\n<div class=\"update-block\">\n          <div class=\"update-block-date\">2020-11-13T13:54:00.000Z</div>\n          <div class=\"update-block-content\">\n            <div class=\"update-block-title\">Investigating</div>\n            <div class=\"update-block-body\">\n<p>我们已经定位到问题发生的原因，并正在解决该问题。</p>\n</div></div></div>\n"}],"order":3,"count":2}]}