{"count":7,"page":2,"page_size":3,"total_pages":3,"periods":[{"id":"2020-10","incidents":[{"id":"5259e2d0","title":"服务器负载过高","date":"2020-10-31T11:16:00.000Z","modified":"2021-02-12T00:12:38.508Z","scheduled":null,"severity":"partial-outage","affectedsystems":["seaweedfs","gateway"],"resolved":true,"content":"<p>我们注意到部分服务的错误率有所上升，并且正在调查。</p>\n<div class=\"update-block\">\n          <div class=\"update-block-date\">2020-10-31T13:15:00.000Z</div>\n          <div class=\"update-block-content\">\n            <div class=\"update-block-title\">Resolved</div>\n            <div class=\"update-block-body\">\n<p>相关服务已经恢复。</p>\n</div></div></div>\n"}],"order":4,"count":1},{"id":"2020-9","incidents":[{"id":"bef1a212","title":"数据中心间通信故障","date":"2020-09-17T17:20:00.000Z","modified":"2021-02-12T00:12:38.506Z","scheduled":null,"severity":"major-outage","affectedsystems":["gateway","seaweedfs"],"resolved":true,"content":"<p>我们注意到主站服务完全无法打开，并正在调查该问题。</p>\n<div class=\"update-block\">\n          <div class=\"update-block-date\">2020-09-17T18:00:00.000Z</div>\n          <div class=\"update-block-content\">\n            <div class=\"update-block-title\">Resolved</div>\n            <div class=\"update-block-body\">\n<p>服务已完全恢复。</p>\n</div></div></div>\n<div class=\"update-block\">\n          <div class=\"update-block-date\">2020-09-17T17:36:30.211Z</div>\n          <div class=\"update-block-content\">\n            <div class=\"update-block-title\">Monitoring</div>\n            <div class=\"update-block-body\">\n<p>我们观察到服务开始恢复，并将持续关注恢复进展。</p>\n</div></div></div>\n<div class=\"update-block\">\n          <div class=\"update-block-date\">2020-09-17T17:27:00.000Z</div>\n          <div class=\"update-block-content\">\n            <div class=\"update-block-title\">Investigating</div>\n            <div class=\"update-block-body\">\n<p>我们正在应用一些网络设备操作，以验证我们对于问题的判断。期间您可能无法连接 Matrix 服务器。</p>\n</div></div></div>\n"},{"id":"b74d3e06","title":"集群调度故障","date":"2020-09-17T02:40:00.000Z","modified":"2021-02-12T00:12:38.507Z","scheduled":null,"severity":"major-outage","affectedsystems":["gateway","seaweedfs"],"resolved":true,"content":"<p>我们注意到主站服务完全不可用，并正在调查该问题。</p>\n<div class=\"update-block\">\n          <div class=\"update-block-date\">2020-09-17T03:33:03.894Z</div>\n          <div class=\"update-block-content\">\n            <div class=\"update-block-title\">Resolved</div>\n            <div class=\"update-block-body\">\n<p>相关服务已经完全恢复。</p>\n</div></div></div>\n<div class=\"update-block\">\n          <div class=\"update-block-date\">2020-09-17T03:22:00.000Z</div>\n          <div class=\"update-block-content\">\n            <div class=\"update-block-title\">Monitoring</div>\n            <div class=\"update-block-body\">\n<p>我们注意到文件系统仍然存在问题，已尝试对文件系统进行修复，正在观察恢复状况。</p>\n</div></div></div>\n<div class=\"update-block\">\n          <div class=\"update-block-date\">2020-09-17T03:03:00.000Z</div>\n          <div class=\"update-block-content\">\n            <div class=\"update-block-title\">Monitoring</div>\n            <div class=\"update-block-body\">\n<p>我们已经调整了相关配置，正在观察恢复状况。</p>\n</div></div></div>\n"},{"id":"7d954eca","title":"文件系统故障","date":"2020-09-16T03:16:00.000Z","modified":"2021-02-12T00:12:38.505Z","scheduled":null,"severity":"partial-outage","affectedsystems":["seaweedfs"],"resolved":true,"content":"<p>我们观察到部分发往文件系统的上传请求失败，正在积极调查该问题。</p>\n<div class=\"update-block\">\n          <div class=\"update-block-date\">2020-09-16T03:39:00.018Z</div>\n          <div class=\"update-block-content\">\n            <div class=\"update-block-title\">Monitoring</div>\n            <div class=\"update-block-body\">\n<p>我们已应用了临时解决方案，正在观察恢复情况。</p>\n</div></div></div>\n"},{"id":"736f36a2","title":"集群路由器维护","date":"2020-09-01T02:34:09.096Z","modified":"2021-02-12T00:12:38.504Z","scheduled":"2020-09-01T02:34:09.163Z","duration":30,"severity":"under-maintenance","affectedsystems":["gateway"],"resolved":true,"content":"<p>近期发现集群路由器存在间歇性鼓掌，现对该路由器进行维护，预计为期半小时。对由此给您带来的不便，我们深表歉意。</p>\n"}],"order":5,"count":4},{"id":"2020-8","incidents":[{"id":"030818ce","title":"假期例行维护 II","date":"2020-08-20T00:00:00.000Z","modified":"2021-02-12T00:12:38.502Z","scheduled":"2020-08-20T00:00:00.000Z","duration":960,"severity":"under-maintenance","affectedsystems":["backend","judge","seaweedfs"],"resolved":true,"content":"<p>为了给您提供更好的服务，Matrix 将于 2020 年 8 月 20 日（星期四）上午 8:00 起进行例行维护，预计最晚 24:00 完成维护。维护期间课程系统将无法访问。对于由此给您带来的不便，我们深表歉意。</p>\n"},{"id":"9cd42d26","title":"服务故障","date":"2020-08-19T13:04:00.000Z","modified":"2021-02-12T00:12:38.503Z","scheduled":null,"severity":"partial-outage","affectedsystems":["backend","seaweedfs"],"resolved":true,"content":"<p>我们正在关注部分服务不可用的问题。</p>\n<div class=\"update-block\">\n          <div class=\"update-block-date\">2020-08-19T13:58:20.549Z</div>\n          <div class=\"update-block-content\">\n            <div class=\"update-block-title\">Resolved</div>\n            <div class=\"update-block-body\">\n<p>问题已解决。</p>\n</div></div></div>\n<div class=\"update-block\">\n          <div class=\"update-block-date\">2020-08-19T13:37:21.633Z</div>\n          <div class=\"update-block-content\">\n            <div class=\"update-block-title\">Monitoring</div>\n            <div class=\"update-block-body\">\n<p>我们已经执行了恢复操作，正在观察恢复情况。</p>\n</div></div></div>\n<div class=\"update-block\">\n          <div class=\"update-block-date\">2020-08-19T13:26:19.605Z</div>\n          <div class=\"update-block-content\">\n            <div class=\"update-block-title\">Investigating</div>\n            <div class=\"update-block-body\">\n<p>我们已经定位到了故障原因，正在处理中。</p>\n</div></div></div>\n"},{"id":"86c97534","title":"假期例行维护","date":"2020-08-01T16:00:03.712Z","modified":"2021-02-12T00:12:38.500Z","scheduled":"2020-08-01T15:50:10.963Z","duration":1450,"severity":"under-maintenance","affectedsystems":["gateway","backend","seaweedfs"],"resolved":true,"content":"<p>为了给您提供更好的服务，Matrix 将于 2020 年 8 月 2 日（星期日）全天进行例行维护，届时课程系统将无法访问。对于由此给您带来的不便，我们深表歉意。</p>\n"}],"order":6,"count":3}]}